module se02.com

go 1.15

require (
	github.com/bmizerany/pat v0.0.0-20170815010413-6226ea591a40 //ct
	github.com/golangcollege/sessions v1.2.0
	github.com/jackc/pgx/v4 v4.10.1
	github.com/justinas/alice v1.2.0
)
